Chapter6.knit
…
The summary measure for this analysis will be time mean. First I calculate this measure and then look at boxplots of the measure for each group.

# Create a summary data by group and subject with mean as the summary variable (ignoring baseline week 0).
RATSLSS <- RATSL %>%
  filter(Time > 1) %>%
  group_by(Group, ID) %>%
  summarise(mean=mean(Weight) ) %>%
  ungroup()

## `summarise()` has grouped output by 'Group'. You can override using the `.groups` argument.

RATSL

## # A tibble: 176 x 6
##    ID    Group WD    Weight  Time stdWeight
##    <fct> <fct> <chr>  <int> <int>     <dbl>
##  1 1     1     WD1      240     1    -1.00 
##  2 2     1     WD1      225     1    -1.12 
##  3 3     1     WD1      245     1    -0.961
##  4 4     1     WD1      260     1    -0.842
##  5 5     1     WD1      255     1    -0.882
##  6 6     1     WD1      260     1    -0.842
##  7 7     1     WD1      275     1    -0.723
##  8 8     1     WD1      245     1    -0.961
##  9 9     2     WD1      410     1     0.350
## 10 10    2     WD1      405     1     0.311
## # ... with 166 more rows
…
